Annika G. Lee - Text Mining Problem Set
…
apple_reviews %>%
  count(product) 

# A tibble: 25 × 2
   product                                                                     n
   <chr>                                                                   <int>
 1 Verizon Prepaid - iPhone 6S (32GB) - Space Gray                             2
 2 iPhone 11                                                                   1
 3 iPhone 11 Pro                                                               1
 4 iPhone 6S                                                                1204
 5 iPhone 6S Plus                                                            245
 6 iPhone 7                                                                  449
 7 iPhone 7 256GB Unlocked GSM 4G LTE Quad-Core Smartphone - Jet Black (R…     7
 8 iPhone 7 256GB Unlocked GSM 4G LTE Quad-Core Smartphone - Rose Gold (R…     2
 9 iPhone 7 32GB                                                             370
10 iPhone 7 Plus                                                             109
# … with 15 more rows
…
2. View Important Words for Each Product

We will use TF-IDF measures to identify key words for a review.

Part A: Calculate top TF-IDF Words for each Review

We will set individual reviews as our “document” level, so that term frequency is with respect to a review and inverse-document frequency across all reviews. Note that each review is uniquely identified by review.ID.

tfidf = review.words %>%
  count(review.ID, word, sort = TRUE) %>%
  bind_tf_idf(word, review.ID, n)
arrange(tfidf, desc(tf_idf))

# A tibble: 58,279 × 6
   review.ID word           n    tf   idf tf_idf
   <chr>     <chr>      <int> <dbl> <dbl>  <dbl>
 1 42033     supposed       1 1      4.77   4.77
 2 48836     supposed       1 1      4.77   4.77
 3 32134     adaptor        1 0.5    7.41   3.71
 4 41822     matters        1 0.5    7.00   3.50
 5 48625     matters        1 0.5    7.00   3.50
 6 31822     dislike        1 0.5    6.72   3.36
 7 31897     met            1 0.5    6.16   3.08
 8 25033     asked          1 0.5    5.62   2.81
 9 37706     conditions     1 0.5    5.46   2.73
10 31107     breathe        1 0.333  8.10   2.70
# … with 58,269 more rows

Above we calculated the TF-IDF score of each word in each review. This score says something about the importance of each word in the review it was from. We will now characterize each review by the top 5 words by TF-IDF and keep only those words.

reviews.tfidf = tfidf %>%
  left_join(apple_reviews, by = "review.ID") %>%
  select(review.ID, product, word, tf_idf, rating) %>%
  group_by(review.ID) %>%
  slice_max(order_by = tf_idf, n = 10, with_ties = TRUE) %>%
  ungroup()

reviews.tfidf

# A tibble: 28,242 × 5
   review.ID product        word      tf_idf rating
   <chr>     <chr>          <chr>      <dbl>  <dbl>
 1 20539     IPHONE 6S PLUS noticable  1.24       5
 2 20539     IPHONE 6S PLUS barely     0.821      5
 3 20539     IPHONE 6S PLUS minor      0.705      5
 4 20539     IPHONE 6S PLUS scratches  0.380      5
 5 20539     IPHONE 6S PLUS screen     0.327      5
 6 20539     IPHONE 6S PLUS great      0.295      5
 7 20540     IPHONE 6S PLUS ti         1.62       1
 8 20540     IPHONE 6S PLUS hace       1.30       1
 9 20540     IPHONE 6S PLUS doesn’t    0.679      1
10 20540     IPHONE 6S PLUS return     0.623      1
# … with 28,232 more rows
…
topwords.tfidf = reviews.tfidf %>%
  count(product, word, sort = TRUE) %>%
  bind_tf_idf(word, product, n)
topwords.tfidf

# A tibble: 11,173 × 6
   product   word        n      tf   idf tf_idf
   <chr>     <chr>   <int>   <dbl> <dbl>  <dbl>
 1 IPHONE 6S battery   113 0.0136      0      0
 2 IPHONE 6S great      90 0.0108      0      0
 3 IPHONE 6S works      68 0.00816     0      0
 4 IPHONE 6S good       67 0.00804     0      0
 5 IPHONE X  new        58 0.00743     0      0
 6 IPHONE 6S like       57 0.00684     0      0
 7 IPHONE 6S new        54 0.00648     0      0
 8 IPHONE X  like       53 0.00679     0      0
 9 IPHONE X  good       51 0.00654     0      0
10 IPHONE X  screen     51 0.00654     0      0
# … with 11,163 more rows
…
product.tfidf = review.words %>%
  count(product, word, sort = TRUE) %>%
  bind_tf_idf(word, product, n)
product.tfidf

# A tibble: 13,338 × 6
   product   word        n      tf   idf tf_idf
   <chr>     <chr>   <int>   <dbl> <dbl>  <dbl>
 1 IPHONE 6S battery   504 0.0270      0      0
 2 IPHONE X  new       301 0.0158      0      0
 3 IPHONE 6S new       267 0.0143      0      0
 4 IPHONE X  screen    250 0.0131      0      0
 5 IPHONE 6S great     217 0.0116      0      0
 6 IPHONE X  battery   204 0.0107      0      0
 7 IPHONE X  like      202 0.0106      0      0
 8 IPHONE 6S good      197 0.0105      0      0
 9 IPHONE X  came      186 0.00974     0      0
10 IPHONE 6S like      183 0.00980     0      0
# … with 13,328 more rows
…
