Annika G. Lee - Cumulative Gains and Lift
…
# Sort the data in descending order of
# predicted probability of Renewal.
# Then create count of customer.
custs = custs %>%
  arrange(desc(ProbRenewal)) %>%
  mutate(CustCount = row_number()) %>%
  select(CustCount, ProbRenewal, Renewal)
custs

# A tibble: 10,000 × 3
   CustCount ProbRenewal Renewal
       <int>       <dbl> <fct>  
 1         1       0.998 1      
 2         2       0.996 1      
 3         3       0.996 1      
 4         4       0.996 1      
 5         5       0.994 1      
 6         6       0.992 1      
 7         7       0.992 1      
 8         8       0.992 1      
 9         9       0.992 1      
10        10       0.99  1      
# … with 9,990 more rows
…
# Calculate cumulative renewal cases.
# Answers, "how many actual renewals are
# contained in the top X customers?"
custs = custs %>%
  mutate(Renewal = as.numeric(levels(Renewal))[Renewal]) %>%
  mutate(cumulative_renewals = cumsum(Renewal))
custs

# A tibble: 10,000 × 4
   CustCount ProbRenewal Renewal cumulative_renewals
       <int>       <dbl>   <dbl>               <dbl>
 1         1       0.998       1                   1
 2         2       0.996       1                   2
 3         3       0.996       1                   3
 4         4       0.996       1                   4
 5         5       0.994       1                   5
 6         6       0.992       1                   6
 7         7       0.992       1                   7
 8         8       0.992       1                   8
 9         9       0.992       1                   9
10        10       0.99        1                  10
# … with 9,990 more rows

# Create a variable for the percent of customers
# in the data represented by the top X customers.
# Also calculate # of Renewals as a percent of total
# Renewals in the 10,000 customers.
custs = custs %>% 
  mutate(percent_of_custs = CustCount/n()) %>%
  mutate(percent_of_renewals = cumulative_renewals/sum(Renewal))
custs

# A tibble: 10,000 × 6
   CustCount ProbRenewal Renewal cumulative_renewals percent_of_custs percent_…¹
       <int>       <dbl>   <dbl>               <dbl>            <dbl>      <dbl>
 1         1       0.998       1                   1           0.0001    0.00437
 2         2       0.996       1                   2           0.0002    0.00873
 3         3       0.996       1                   3           0.0003    0.0131 
 4         4       0.996       1                   4           0.0004    0.0175 
 5         5       0.994       1                   5           0.0005    0.0218 
 6         6       0.992       1                   6           0.0006    0.0262 
 7         7       0.992       1                   7           0.0007    0.0306 
 8         8       0.992       1                   8           0.0008    0.0349 
 9         9       0.992       1                   9           0.0009    0.0393 
10        10       0.99        1                  10           0.001     0.0437 
# … with 9,990 more rows, and abbreviated variable name ¹​percent_of_renewals
…
# Calculate pre-Lift values. This includes
# the proportion of the top X customers that
# are Renewals and the baseline proportion in
# the whole sample. And finally, we calculate
# the lift as a ratio of propRenew/baseline.
custs = custs %>%
  mutate(propRenew = cumulative_renewals / CustCount) %>%
  mutate(baseline = sum(Renewal)/n()) %>%
  mutate(lift = propRenew/baseline)
# View a subset of features to make it
# easier to see.
custs %>%
  select(percent_of_custs, percent_of_renewals, ProbRenewal, propRenew, baseline, lift)

# A tibble: 10,000 × 6
   percent_of_custs percent_of_renewals ProbRenewal propRenew baseline  lift
              <dbl>               <dbl>       <dbl>     <dbl>    <dbl> <dbl>
 1           0.0001             0.00437       0.998         1   0.0229  43.7
 2           0.0002             0.00873       0.996         1   0.0229  43.7
 3           0.0003             0.0131        0.996         1   0.0229  43.7
 4           0.0004             0.0175        0.996         1   0.0229  43.7
 5           0.0005             0.0218        0.994         1   0.0229  43.7
 6           0.0006             0.0262        0.992         1   0.0229  43.7
 7           0.0007             0.0306        0.992         1   0.0229  43.7
 8           0.0008             0.0349        0.992         1   0.0229  43.7
 9           0.0009             0.0393        0.992         1   0.0229  43.7
10           0.001              0.0437        0.99          1   0.0229  43.7
# … with 9,990 more rows
…
